
	Model: data/hmms/N64__M2048_t3__a0.1_I10/ascending_shriek.hmm   className: 'ascending_shriek'
	N=64 M=2048 type: cascade-3
	restriction: 1e-05
	        #sequences: 74
	        auto value: 0.1
	      #refinements: 10
	          Σ log(P): -3.026113e+04
